<svg width="116" height="48" viewBox="0 0 116 48" fill="none" xmlns="http://www.w3.org/2000/svg">
<g clip-path="url(#clip0_2_257)" filter="url(#filter0_d_2_257)">
<path d="M11 22.2949V0H4V22.0234C4 34.7637 9.61328 40 20 40C30.3867 40 36 34.7637 36 22.0234V0H29V22.2949C29 30.3906 26.0352 34 20 34C13.9648 34 11 30.3906 11 22.2949Z" fill="#003594"/>
<path d="M85 6H91V0H85V6Z" fill="#003594"/>
<path d="M111.742 9.16797C111.852 9.20312 111.938 9.23828 112 9.26953V16H108.812C104.393 16 102 18.5645 102 23.0352V39H96V10H102V14.668C103.469 11.5371 106.277 9 110.572 9C110.693 9 110.807 9.00391 110.914 9.01172C111.135 9.0293 111.328 9.0625 111.492 9.09961L111.586 9.12305L111.742 9.16797Z" fill="#003594"/>
<path d="M91 39H85V10H91V39Z" fill="#003594"/>
<path fill-rule="evenodd" clip-rule="evenodd" d="M74 39V35.3965C72.3145 38.3652 68.8457 40 64.2227 40C58.5684 40 54 36.6914 54 31.0781C54 27.4082 56.1758 22.8184 65.0391 21.9004L73.793 20.9844C73.793 15.6387 71.3457 13.9121 67.9746 13.9121C64.8203 13.9121 62.7012 15.707 62.2656 19H55.4688C55.9023 13.3867 59.7637 9 67.9199 9C74.2285 9 80 10.998 80 22.2246V39H74ZM73.793 25.3555V27.0293C73.793 31.834 70.4219 35.0723 65.7461 35.0723C63.2441 35.0723 61.1777 33.5605 61.1777 31.0781C61.1777 28.6484 62.918 26.8672 66.5078 26.3809L73.793 25.3555Z" fill="#003594"/>
<path d="M42.0234 10.0156V2H48V10.0156H53V15H48V30.5273C48 33.0645 49.0645 34 51.6191 34H52V39.0039H50.127C44.3086 39.0039 42.0234 36.6816 42.0234 30.9062V15H38V10.0156H42.0234Z" fill="#003594"/>
</g>
<defs>
<filter id="filter0_d_2_257" x="0" y="0" width="116" height="48" filterUnits="userSpaceOnUse" color-interpolation-filters="sRGB">
<feFlood flood-opacity="0" result="BackgroundImageFix"/>
<feColorMatrix in="SourceAlpha" type="matrix" values="0 0 0 0 0 0 0 0 0 0 0 0 0 0 0 0 0 0 127 0" result="hardAlpha"/>
<feOffset dy="4"/>
<feGaussianBlur stdDeviation="2"/>
<feComposite in2="hardAlpha" operator="out"/>
<feColorMatrix type="matrix" values="0 0 0 0 0 0 0 0 0 0 0 0 0 0 0 0 0 0 0.25 0"/>
<feBlend mode="normal" in2="BackgroundImageFix" result="effect1_dropShadow_2_257"/>
<feBlend mode="normal" in="SourceGraphic" in2="effect1_dropShadow_2_257" result="shape"/>
</filter>
<clipPath id="clip0_2_257">
<rect width="108" height="40" fill="#003594" transform="translate(4)"/>
</clipPath>
</defs>
</svg>
